\relax 
\@writefile{toc}{\contentsline {chapter}{\numberline {1}Introduction}{1}}
\@writefile{lof}{\addvspace {10\p@ }}
\@writefile{lot}{\addvspace {10\p@ }}
\citation{ontolgies}
\@writefile{toc}{\contentsline {chapter}{\numberline {2}Background}{3}}
\@writefile{lof}{\addvspace {10\p@ }}
\@writefile{lot}{\addvspace {10\p@ }}
\@writefile{toc}{\contentsline {subsection}{\numberline {2.0.1}The DataSet: RNA-Seq Data}{3}}
\@writefile{toc}{\contentsline {subsection}{\numberline {2.0.2}GeneOntology}{3}}
\citation{GeneOntologyHandbook}
\citation{go}
\citation{GeneOntologyHandbook}
\citation{go}
\citation{GeneOntologyHandbook}
\citation{do}
\citation{do}
\citation{simGsea}
\citation{simGsea}
\citation{fisher}
\@writefile{toc}{\contentsline {subsection}{\numberline {2.0.3}GSEA: Gene Set enrichment and depletion analysis}{5}}
\citation{goatools}
\@writefile{toc}{\contentsline {subsection}{\numberline {2.0.4}Conducting GSEA}{6}}
\@writefile{toc}{\contentsline {chapter}{\numberline {3}Related Work}{7}}
\@writefile{lof}{\addvspace {10\p@ }}
\@writefile{lot}{\addvspace {10\p@ }}
\@writefile{toc}{\contentsline {chapter}{\numberline {4}Design and Implementation}{9}}
\@writefile{lof}{\addvspace {10\p@ }}
\@writefile{lot}{\addvspace {10\p@ }}
\@writefile{toc}{\contentsline {section}{\numberline {4.1}clustering}{9}}
\@writefile{toc}{\contentsline {section}{\numberline {4.2}Multi-layer perceptron}{9}}
\@writefile{toc}{\contentsline {section}{\numberline {4.3}Attention}{9}}
\@writefile{toc}{\contentsline {section}{\numberline {4.4}residual connection}{9}}
\@writefile{toc}{\contentsline {chapter}{\numberline {5}Evaluation}{11}}
\@writefile{lof}{\addvspace {10\p@ }}
\@writefile{lot}{\addvspace {10\p@ }}
\bibstyle{unsrt}
\@writefile{toc}{\contentsline {chapter}{\numberline {6}Summary and Conclusions}{13}}
\@writefile{lof}{\addvspace {10\p@ }}
\@writefile{lot}{\addvspace {10\p@ }}
