GO:0006412 BP 1.45e-26 36/400 234/28212 07 translation                              13627, 13629, 14694, 16785, 16898, 19951, 19988, 19989, 20044, 20054, 20068, 20085, 20088, 20091, 20102, 20103, 20115, 20226, 22121, 26908, 26961, 26987, 27050, 27176, 27370, 54709, 55949, 65019, 67160, 67427, 67891, 67945, 68135, 68193, 76846, 276770
GO:0002181 BP 4.22e-13 12/400  42/28212 08 cytoplasmic translation                  11837, 19899, 19988, 19989, 26961, 27370, 56040, 67186, 68193, 76808, 667618, 100042823
GO:0000028 BP 8.99e-12  8/400  15/28212 07 ribosomal small subunit assembly         16785, 16898, 20044, 20054, 20085, 20103, 67097, 75617
GO:0006096 BP 9.98e-12 10/400  31/28212 12 glycolytic process                       11674, 11676, 14751, 15275, 15277, 18655, 18746, 21991, 56421, 433182
GO:0051726 BP 8.44e-11 15/400 114/28212 04 regulation of cell cycle                 12043, 12444, 12445, 12453, 12575, 14694, 15481, 15902, 18148, 19264, 20658, 20848, 23882, 68077, 114584
GO:0043066 BP 5.01e-10 30/400 555/28212 07 negative regulation of apoptotic process 11799, 12043, 12176, 12177, 12444, 12575, 13135, 13194, 14775, 15275, 15516, 16185, 17319, 17979, 18148, 20655, 20658, 20848, 21936, 22228, 28106, 56295, 56426, 56637, 57320, 66494, 93672, 109801, 110213, 276770
GO:0071456 BP 1.29e-09 11/400  63/28212 06 cellular response to hypoxia             12043, 12176, 12177, 13685, 14688, 15441, 18453, 18655, 56295, 68077, 70186
GO:0006915 BP 2.60e-09 29/400 560/28212 04 apoptotic process                        11676, 11799, 12043, 12176, 12177, 12236, 12368, 13135, 14694, 14775, 16852, 19073, 21936, 21942, 22333, 23882, 27050, 28106, 56426, 66105, 66494, 66940, 70186, 72244, 76884, 83486, 93672, 110213, 276770
GO:0006414 BP 1.07e-08  7/400  21/28212 06 translational elongation                 13627, 13629, 55949, 56040, 67160, 67186, 276770
GO:0042274 BP 8.49e-08  6/400  17/28212 04 ribosomal small subunit biogenesis       18148, 20054, 20068, 20085, 20088, 20115
GO:0051881 BP 1.00e-07  7/400  28/28212 04 regulation of mitochondrial membrane potential 12043, 20655, 22187, 22228, 57320, 66494, 114584
GO:0007015 BP 1.36e-07 12/400 119/28212 04 actin filament organization              11840, 12043, 12540, 12631, 12721, 19241, 19354, 59069, 66713, 74117, 326618, 621054
GO:0043067 BP 5.84e-07  4/400   6/28212 05 regulation of programmed cell death      12043, 12176, 12177, 13010
GO:0071346 BP 6.12e-07 10/400  90/28212 06 cellular response to interferon-gamma    11465, 12332, 12540, 14961, 15018, 20911, 22121, 22352, 66713, 74117
GO:0043085 BP 1.36e-06  7/400  40/28212 04 positive regulation of catalytic activity 11840, 12043, 12226, 12540, 15481, 18148, 20655
GO:0034314 BP 2.15e-06  5/400  16/28212 13 Arp2/3 complex-mediated actin nucleation 11867, 66713, 67771, 74117, 76709
GO:0030890 BP 3.12e-06  7/400  45/28212 09 positive regulation of B cell proliferation 12043, 12520, 12575, 17319, 19264, 22163, 74131
GO:0002376 BP 3.58e-06 20/400 426/28212 01 immune system process                    12010, 12326, 12500, 12502, 12503, 14462, 14961, 14964, 14972, 15007, 15018, 16184, 16190, 16453, 16913, 17319, 56045, 78473, 78781, 80795
GO:0001916 BP 5.52e-06  5/400  19/28212 09 positive regulation of T cell mediated cytotoxicity 12010, 14964, 14972, 15481, 19264
GO:0042110 BP 1.06e-05  6/400  36/28212 05 T cell activation                        12481, 12487, 12500, 12506, 13200, 20230
GO:0071353 BP 1.21e-05  5/400  22/28212 06 cellular response to interleukin-4       11837, 12721, 14462, 15516, 16898
GO:0010977 BP 1.24e-05  8/400  76/28212 09 negative regulation of neuron projection development 12010, 13427, 14964, 14972, 16852, 22352, 56637, 64138
GO:0042542 BP 1.47e-05  6/400  38/28212 05 response to hydrogen peroxide            12043, 12368, 14775, 20655, 56426, 57320
GO:0006754 BP 1.52e-05  5/400  23/28212 11 ATP biosynthetic process                 11674, 11946, 11947, 18746, 66043
GO:0050821 BP 1.80e-05 11/400 159/28212 04 protein stabilization                    12317, 18148, 18643, 20115, 21376, 22218, 56426, 57320, 65019, 67955, 68077
GO:0008284 BP 1.97e-05 21/400 519/28212 05 positive regulation of cell proliferation 11740, 12043, 12317, 12444, 12445, 12520, 13010, 15902, 18148, 19354, 20848, 21814, 56426, 65019, 68592, 69573, 76846, 93672, 240641, 267019, 276770
GO:0042098 BP 2.35e-05  5/400  25/28212 06 T cell proliferation                     12445, 14225, 17698, 19264, 22163
GO:0006457 BP 3.45e-05  9/400 113/28212 02 protein folding                          12317, 12330, 14827, 15481, 15516, 18453, 67955, 70356, 71853
GO:0032469 BP 3.56e-05  4/400  14/28212 10 endoplasmic reticulum calcium ion homeostasis 12043, 80795, 108058, 110213
GO:0033138 BP 3.64e-05  8/400  88/28212 10 positive regulation of peptidyl-serine phosphorylation 12043, 12540, 15516, 17319, 56426, 56637, 57320, 381290
GO:0042102 BP 3.75e-05  7/400  65/28212 09 positive regulation of T cell proliferation 12487, 12721, 16184, 16453, 19264, 74131, 80795
GO:0031647 BP 4.14e-05  7/400  66/28212 03 regulation of protein stability          12043, 12520, 12540, 15481, 18148, 22218, 67955
GO:0010628 BP 4.67e-05 18/400 428/28212 06 positive regulation of gene expression   12317, 12487, 12540, 12571, 14462, 15481, 15902, 16186, 17698, 17979, 20115, 20848, 22352, 27050, 56426, 56637, 57320, 65019
GO:0051560 BP 4.80e-05  4/400  15/28212 10 mitochondrial calcium ion homeostasis    11749, 69029, 72244, 76614
GO:0007163 BP 5.14e-05  6/400  47/28212 02 establishment or maintenance of cell polarity 12331, 12502, 12540, 56637, 66713, 74117
GO:0061136 BP 6.33e-05  4/400  16/28212 09 regulation of proteasomal protein catabolic process 14775, 19186, 19188, 22187
GO:0015986 BP 6.33e-05  4/400  16/28212 12 ATP synthesis coupled proton transport   11946, 11947, 11950, 66043
GO:0061077 BP 7.01e-05  5/400  31/28212 03 chaperone-mediated protein folding       12317, 12330, 14225, 15481, 70356
GO:0005975 BP 7.22e-05 11/400 185/28212 03 carbohydrate metabolic process           14635, 14751, 15275, 15277, 16828, 17448, 18655, 19045, 56637, 72157, 109801
GO:0008360 BP 8.20e-05 10/400 156/28212 06 regulation of cell shape                 11674, 12540, 12721, 14674, 17698, 22388, 67268, 67938, 104318, 192662
GO:0010498 BP 8.21e-05  5/400  32/28212 07 proteasomal protein catabolic process    13194, 16913, 19170, 26443, 26445
GO:0002474 BP 9.49e-05  3/400   7/28212 04 antigen processing and presentation of peptide antigen via MHC class I 12010, 14964, 14972
GO:0051099 BP 9.49e-05  3/400   7/28212 04 positive regulation of binding           12306, 13806, 20194
GO:0010950 BP 9.49e-05  3/400   7/28212 10 positive regulation of endopeptidase activity 19186, 19188, 66494
GO:0006417 BP 1.03e-04  9/400 130/28212 07 regulation of translation                13685, 14694, 19045, 22121, 26987, 27050, 56040, 73826, 76884
GO:0030833 BP 1.11e-04  5/400  34/28212 10 regulation of actin filament polymerization 11867, 12721, 18643, 67771, 76709
GO:0071157 BP 1.61e-04  4/400  20/28212 07 negative regulation of cell cycle arrest 12317, 15516, 17319, 65019
GO:0010592 BP 1.97e-04  4/400  21/28212 09 positive regulation of lamellipodium assembly 12631, 19354, 74117, 76709
GO:0033206 BP 2.01e-04  2/400   2/28212 05 meiotic cytokinesis                      66713, 74117
GO:2000277 BP 2.01e-04  2/400   2/28212 10 positive regulation of oxidative phosphorylation uncoupler activity 11739, 57320
GO:1990173 BP 2.01e-04  2/400   2/28212 07 protein localization to nucleoplasm      21376, 68077
GO:2000814 BP 2.01e-04  2/400   2/28212 12 positive regulation of barbed-end actin filament capping 12631, 76709
GO:0034097 BP 2.05e-04  6/400  60/28212 04 response to cytokine                     12043, 12368, 12721, 13200, 16162, 20848
GO:0030388 BP 2.23e-04  3/400   9/28212 05 fructose 1,6-bisphosphate metabolic process 11674, 11676, 56421
GO:0014911 BP 2.44e-04  5/400  40/28212 08 positive regulation of smooth muscle cell migration 12043, 17319, 19241, 76709, 108058
GO:0051603 BP 2.46e-04  6/400  62/28212 06 proteolysis involved in cellular protein catabolic process 13030, 16913, 19170, 26443, 26445, 64138
GO:0006979 BP 2.55e-04  8/400 116/28212 03 response to oxidative stress             12043, 13010, 14775, 20655, 27050, 57320, 72244, 80795
GO:0046034 BP 3.09e-04  5/400  42/28212 10 ATP metabolic process                    11637, 11946, 11947, 15481, 66043
GO:0006614 BP 3.15e-04  3/400  10/28212 12 SRP-dependent cotranslational protein targeting to membrane 53421, 66661, 67437
GO:0006880 BP 3.15e-04  3/400  10/28212 06 intracellular sequestering of iron ion   14319, 14325, 14337
GO:0010917 BP 3.15e-04  3/400  10/28212 05 negative regulation of mitochondrial membrane potential 12176, 12177, 66494
GO:0060548 BP 3.18e-04  7/400  91/28212 05 negative regulation of cell death        12176, 12177, 13010, 13030, 20848, 57320, 68953
GO:0043154 BP 3.19e-04  6/400  65/28212 12 negative regulation of cysteine-type endopeptidase activity involved in apoptotic process 11799, 12581, 14751, 14775, 18518, 93672
GO:0030031 BP 3.38e-04  4/400  24/28212 04 cell projection assembly                 12332, 12540, 19354, 76884
GO:0010499 BP 3.38e-04  4/400  24/28212 08 proteasomal ubiquitin-independent protein catabolic process 16913, 19170, 26443, 26445
GO:0045727 BP 3.77e-04  6/400  67/28212 08 positive regulation of translation       13629, 15388, 18148, 20091, 22352, 73826
GO:0045859 BP 3.98e-04  4/400  25/28212 09 regulation of protein kinase activity    12540, 20655, 22163, 75547
GO:0046902 BP 4.29e-04  3/400  11/28212 06 regulation of mitochondrial membrane permeability 12043, 12176, 20848
GO:0051639 BP 4.29e-04  3/400  11/28212 05 actin filament network formation         18826, 56226, 67771
GO:0097435 BP 4.29e-04  3/400  11/28212 03 supramolecular fiber organization        13010, 14225, 15516
GO:0042273 BP 4.65e-04  4/400  26/28212 04 ribosomal large subunit biogenesis       18148, 19989, 67115, 227290
GO:0007608 BP 1.14e-07  0/400 1134/28212 06 sensory perception of smell              
GO:0007186 BP 6.45e-07  4/400 1691/28212 05 G-protein coupled receptor signaling pathway 14674, 14688, 19354, 75547
GO:0005840 CC 3.64e-34 38/400 172/28212 05 ribosome                                 11837, 12330, 14694, 16785, 16898, 19899, 19951, 19988, 19989, 20044, 20054, 20068, 20085, 20088, 20091, 20102, 20103, 20115, 22121, 26961, 27050, 27176, 27207, 27370, 56040, 65019, 67036, 67097, 67115, 67186, 67427, 67891, 67945, 68193, 75617, 76808, 76846, 270106
GO:0005737 CC 8.74e-30 194/400 6430/28212 03 cytoplasm                                11461, 11465, 11637, 11674, 11676, 11749, 11799, 11821, 11837, 11840, 11857, 11867, 12043, 12176, 12226, 12236, 12238, 12306, 12313, 12317, 12326, 12330, 12331, 12332, 12340, 12368, 12399, 12444, 12445, 12503, 12540, 12571, 12575, 12581, 12631, 12721, 12916, 12934, 13010, 13030, 13057, 13194, 13427, 13627, 13629, 13685, 13806, 14225, 14269, 14319, 14325, 14337, 14569, 14635, 14674, 14694, 14751, 14775, 14827, 15366, 15388, 15481, 15516, 15902, 16453, 16785, 16828, 16852, 16913, 17319, 17698, 17748, 17938, 17979, 18148, 18458, 18518, 18578, 18643, 18655, 18746, 18826, 19045, 19170, 19186, 19188, 19241, 19244, 19354, 19899, 19988, 20085, 20091, 20102, 20115, 20193, 20226, 20318, 20409, 20527, 20655, 20742, 20815, 20848, 20911, 21814, 21894, 22187, 22218, 22228, 22352, 22388, 22627, 23882, 23994, 24068, 26401, 26443, 26445, 26893, 26908, 26961, 26987, 27050, 27370, 53314, 54198, 54709, 55949, 56226, 56419, 56421, 56426, 56433, 56637, 57320, 59022, 59042, 59069, 65019, 66075, 66395, 66713, 66914, 67097, 67160, 67427, 67568, 67665, 67771, 67955, 68135, 68193, 68953, 68991, 69080, 69536, 70350, 70356, 71817, 71962, 72157, 72244, 73826, 74117, 74131, 75547, 76709, 76846, 76884, 76959, 78473, 78781, 104318, 107526, 107702, 108058, 109108, 109552, 110196, 110213, 110611, 114584, 192662, 218490, 226591, 226757, 227929, 229663, 240641, 267019, 276770, 326618, 433182
GO:0043209 CC 2.50e-27 34/400 191/28212 02 myelin sheath                            11429, 11461, 11465, 11674, 11739, 11740, 11946, 11947, 11950, 12043, 12313, 12330, 12540, 12861, 12934, 13627, 13806, 14569, 14688, 14751, 14827, 15481, 17319, 17448, 17698, 18746, 20655, 22187, 22273, 22333, 22388, 72900, 76614, 108124
GO:0005829 CC 1.47e-26 119/400 2974/28212 04 cytosol                                  11461, 11637, 11674, 11799, 11821, 11837, 11840, 11857, 12010, 12043, 12177, 12236, 12306, 12317, 12368, 12399, 12444, 12540, 12571, 12575, 12581, 12934, 13627, 13629, 13685, 13806, 14225, 14247, 14674, 14694, 14751, 14775, 15275, 15277, 15366, 15388, 15481, 15516, 15902, 16785, 16828, 16852, 17319, 17698, 17748, 17979, 18148, 18458, 18518, 18578, 18655, 18746, 18826, 19045, 19241, 19354, 19899, 20085, 20091, 20226, 20655, 20815, 20848, 20911, 21991, 22273, 22352, 22627, 24068, 26908, 27050, 54198, 56421, 56426, 56433, 56451, 56637, 56700, 57296, 57320, 58810, 59022, 59069, 66395, 66914, 67097, 67568, 68077, 68193, 68953, 68991, 69745, 70186, 70356, 71853, 71962, 72157, 75547, 76959, 78473, 78781, 107526, 107702, 108058, 109552, 109801, 110196, 110611, 192662, 218490, 218811, 226591, 226757, 227290, 227929, 229663, 231932, 270106, 433182
GO:0022627 CC 4.61e-25 20/400  47/28212 06 cytosolic small ribosomal subunit        14694, 16785, 16898, 20044, 20054, 20068, 20085, 20088, 20091, 20102, 20103, 20115, 27050, 27207, 27370, 67097, 67427, 75617, 76846, 267019
GO:0022625 CC 2.11e-21 20/400  67/28212 06 cytosolic large ribosomal subunit        11837, 19899, 19951, 19988, 19989, 22121, 26961, 27176, 56040, 65019, 67115, 67186, 67891, 68193, 68436, 76808, 270106, 667618, 100040823, 100042823
GO:0005739 CC 1.74e-17 73/400 1704/28212 05 mitochondrion                            11429, 11637, 11674, 11676, 11739, 11740, 11773, 11946, 11947, 11950, 11992, 12043, 12176, 12177, 12215, 12857, 12861, 12934, 13030, 13057, 13427, 14319, 14694, 14775, 14827, 15275, 15277, 15516, 16468, 16828, 17448, 18746, 20044, 20226, 20463, 20655, 20848, 22163, 22187, 22228, 22272, 22273, 22333, 22627, 27050, 51798, 56295, 56451, 56637, 57320, 66043, 66075, 66494, 66916, 67036, 67680, 68436, 69029, 69536, 69745, 70186, 72244, 72900, 76614, 77619, 78330, 104130, 109552, 110196, 114584, 226757, 267019, 317757
GO:0016020 CC 2.98e-16 165/400 6476/28212 01 membrane                                 11674, 11739, 11740, 11773, 11837, 11840, 11857, 11946, 11947, 11950, 12043, 12176, 12177, 12215, 12306, 12317, 12330, 12331, 12340, 12444, 12445, 12481, 12487, 12500, 12502, 12503, 12506, 12508, 12520, 12521, 12540, 12631, 12721, 12857, 12861, 12934, 13057, 13135, 13200, 13627, 13723, 13806, 14225, 14269, 14569, 14674, 14694, 14758, 14961, 14964, 14972, 15007, 15018, 15275, 15366, 15481, 15516, 16162, 16184, 16185, 16186, 16190, 16205, 16432, 16453, 16785, 16792, 17067, 17069, 17448, 17698, 18301, 18453, 18578, 18826, 19244, 19264, 19354, 20250, 20320, 20333, 20345, 20355, 20463, 20527, 20652, 20742, 20932, 20971, 21814, 21894, 21936, 21942, 22134, 22163, 22218, 22228, 22272, 22273, 22333, 24109, 26401, 27050, 27176, 53421, 56295, 56426, 56433, 56529, 56637, 56700, 56786, 57320, 58520, 59042, 66043, 66059, 66075, 66105, 66256, 66357, 66366, 66397, 66916, 66940, 67437, 67680, 68292, 68953, 69029, 69573, 69742, 70186, 70350, 71817, 71853, 72244, 72900, 73834, 75547, 75909, 76614, 76799, 76959, 78330, 78473, 80795, 104130, 104318, 108058, 108124, 109108, 109552, 110213, 110454, 114584, 192662, 218811, 276770, 317757, 381290, 384009, 433182, 503610, 100041546
GO:1990904 CC 5.60e-15 18/400 102/28212 02 ribonucleoprotein complex                11461, 11837, 13629, 15388, 15481, 18148, 18458, 19989, 20091, 20103, 20115, 22121, 22352, 24068, 27050, 56637, 67891, 76846
GO:0015935 CC 1.63e-13 10/400  22/28212 05 small ribosomal subunit                  14694, 16785, 16898, 18148, 20054, 20102, 20103, 27050, 67427, 76846
GO:0032991 CC 1.73e-13 42/400 782/28212 01 protein-containing complex               11461, 11674, 11749, 11840, 12043, 12306, 12317, 12330, 12481, 12506, 12575, 12721, 12934, 13194, 13200, 13685, 15275, 15481, 15516, 15902, 17979, 18148, 20115, 20655, 20742, 20911, 21819, 22333, 23994, 56295, 56451, 56637, 65019, 66494, 67268, 67938, 67955, 70356, 71148, 108058, 170791, 381290
GO:0005783 CC 4.85e-13 58/400 1425/28212 05 endoplasmic reticulum                    11837, 12043, 12176, 12177, 12317, 12330, 13010, 13135, 13200, 14827, 14964, 14972, 15007, 15018, 16205, 18453, 19899, 19988, 20194, 20250, 20333, 20355, 20652, 20815, 20932, 21814, 21819, 27050, 27370, 53421, 55949, 56529, 57320, 58520, 64138, 66059, 66256, 66357, 66366, 66397, 66661, 66940, 67160, 67437, 67963, 68193, 68292, 71817, 71853, 72244, 75909, 80795, 93672, 109108, 110213, 270106, 276770, 503610
GO:0005743 CC 4.00e-12 28/400 396/28212 06 mitochondrial inner membrane             11637, 11739, 11740, 11946, 11947, 11950, 12857, 12861, 17448, 20463, 20848, 22228, 22272, 22273, 22333, 27050, 56295, 56451, 66043, 66075, 66916, 67680, 69029, 72900, 76614, 78330, 104130, 229663
GO:0045121 CC 5.61e-12 23/400 265/28212 04 membrane raft                            11461, 11739, 11740, 11946, 11947, 12215, 12306, 12481, 12487, 12506, 13629, 13806, 14758, 14964, 15275, 15481, 18655, 20194, 20971, 56637, 57320, 66395, 433182
GO:0005622 CC 1.74e-11 38/400 754/28212 02 intracellular                            11837, 11840, 12043, 12540, 12631, 12934, 14961, 15481, 15516, 16453, 16785, 16852, 19354, 19899, 19951, 19988, 20068, 20085, 20088, 20091, 20102, 20115, 24109, 26961, 27207, 27370, 56040, 56433, 66397, 66940, 67115, 67186, 67427, 76846, 109552, 110454, 218811, 270106
GO:0005634 CC 2.42e-11 140/400 5829/28212 05 nucleus                                  11461, 11569, 11637, 11749, 11799, 11837, 12043, 12176, 12177, 12226, 12236, 12238, 12313, 12317, 12326, 12332, 12368, 12399, 12444, 12445, 12571, 12575, 12581, 12631, 12857, 12916, 13057, 13194, 13627, 13685, 13709, 14247, 14462, 14674, 14694, 14775, 14827, 15388, 15441, 15481, 15516, 15902, 16468, 16785, 16852, 16913, 17319, 17748, 17938, 17979, 18148, 18458, 18578, 18643, 18746, 19045, 19170, 19241, 19244, 19988, 20018, 20024, 20091, 20115, 20193, 20226, 20230, 20655, 20658, 20742, 20815, 20848, 21376, 22187, 22218, 22627, 23882, 23994, 24068, 26443, 26445, 26893, 26931, 27050, 50794, 53314, 56045, 56295, 56419, 56637, 56700, 57296, 57320, 59022, 66075, 66151, 66395, 66855, 66940, 66977, 67097, 67160, 67568, 67891, 67955, 68077, 68592, 68991, 69029, 69745, 70350, 71148, 73736, 73826, 74131, 75410, 75547, 75617, 76199, 76884, 76959, 78473, 78781, 83486, 104318, 106298, 108058, 109108, 109801, 110611, 114584, 170791, 192662, 218490, 234135, 240641, 245007, 268741, 269582, 276770
GO:0009986 CC 1.01e-09 32/400 643/28212 02 cell surface                             11947, 12306, 12317, 12481, 12487, 12508, 13030, 13806, 14827, 14961, 14964, 14972, 15007, 15018, 15481, 15516, 16184, 16185, 16852, 17067, 17319, 17698, 19264, 20971, 21814, 22163, 64138, 69573, 76709, 227290, 433182, 100041546
GO:0042788 CC 5.04e-09  8/400  29/28212 06 polysomal ribosome                       13629, 19899, 19988, 26961, 27176, 27370, 68193, 76808
GO:0009897 CC 1.01e-08 21/400 325/28212 03 external side of plasma membrane         12010, 12317, 12481, 12487, 12506, 13030, 14961, 14964, 14972, 16162, 16184, 16185, 16186, 17067, 18453, 19264, 21814, 21936, 21942, 22163, 110454
GO:0015629 CC 2.53e-08 16/400 197/28212 06 actin cytoskeleton                       11461, 11465, 11674, 11867, 12631, 12721, 18826, 22388, 56226, 59069, 66395, 67771, 72157, 75547, 76709, 326618
GO:0005886 CC 4.64e-08 96/400 3899/28212 02 plasma membrane                          11773, 11840, 11946, 11947, 12010, 12215, 12306, 12313, 12331, 12487, 12503, 12506, 12508, 12520, 12540, 12631, 12721, 12934, 13057, 13627, 13629, 13723, 13806, 14269, 14694, 14751, 14758, 14827, 14961, 14964, 14972, 15007, 15018, 15481, 15516, 16190, 16432, 16785, 17067, 17069, 17698, 18453, 18826, 19045, 19244, 19264, 19354, 20318, 20320, 20345, 20355, 20527, 20655, 20742, 20815, 20848, 20911, 21814, 21894, 21936, 22134, 22163, 22218, 22333, 22352, 22388, 22627, 24068, 24109, 27050, 56045, 56426, 56451, 56637, 57320, 66105, 66395, 66914, 67680, 70350, 71853, 75909, 76709, 78473, 80795, 104318, 108058, 108124, 109552, 109801, 110454, 114584, 229663, 381290, 433182, 100041546
GO:0005730 CC 5.13e-08 30/400 680/28212 05 nucleolus                                12332, 12399, 12444, 12575, 13030, 13627, 18148, 19899, 19988, 20024, 20044, 20085, 20115, 20463, 20742, 22218, 27050, 59022, 65019, 66661, 67097, 68077, 69745, 73736, 75617, 75909, 76846, 106298, 240641, 270106
GO:0008250 CC 6.72e-08  5/400   9/28212 05 oligosaccharyltransferase complex        13135, 13200, 66059, 66357, 68292
GO:0005885 CC 1.33e-07  5/400  10/28212 05 Arp2/3 protein complex                   11867, 66713, 67771, 74117, 76709
GO:0048471 CC 1.64e-07 27/400 600/28212 04 perinuclear region of cytoplasm          11749, 12043, 12236, 12306, 12317, 12575, 13010, 13030, 14694, 15388, 15481, 15516, 17698, 17979, 18578, 18826, 21819, 22352, 56637, 57320, 74117, 75547, 76884, 104318, 108058, 114584, 240641
GO:0005884 CC 2.00e-07 10/400  80/28212 06 actin filament                           11465, 12721, 18826, 19354, 22388, 59069, 74117, 75547, 326618, 621054
GO:0031966 CC 2.84e-07 10/400  83/28212 05 mitochondrial membrane                   11947, 12043, 12176, 12313, 12631, 12857, 22228, 67680, 72244, 110213
GO:0043005 CC 4.05e-07 24/400 513/28212 04 neuron projection                        11840, 12313, 12540, 12631, 12934, 13806, 14694, 14751, 15481, 18643, 19045, 20193, 20655, 22187, 22352, 57320, 59069, 67771, 76709, 76884, 104318, 108058, 381290, 433182
GO:0042612 CC 4.08e-07  5/400  12/28212 05 MHC class I protein complex              12010, 14964, 14972, 15007, 15018
GO:0005844 CC 4.13e-07  8/400  49/28212 03 polysome                                 12317, 13629, 19989, 20102, 22352, 26443, 27050, 75617
GO:0001725 CC 1.04e-06  9/400  74/28212 07 stress fiber                             11461, 12306, 13057, 18826, 59069, 67268, 67665, 67938, 326618
GO:0002102 CC 1.42e-06  6/400  26/28212 05 podosome                                 11461, 18826, 59069, 74117, 108101, 326618
GO:0070062 CC 1.46e-06  9/400  77/28212 05 extracellular exosome                    11465, 11674, 12306, 12520, 15481, 16432, 66395, 109552, 114584
GO:0005654 CC 2.14e-06 54/400 1945/28212 05 nucleoplasm                              11821, 11950, 12043, 12176, 12326, 12332, 12368, 12444, 12571, 12575, 12581, 13194, 14462, 14694, 14751, 15388, 16898, 17319, 17979, 18148, 19045, 19186, 19188, 20054, 20085, 20230, 20655, 20848, 24068, 26443, 26445, 26893, 53314, 56045, 56295, 59042, 65019, 66494, 67680, 68077, 68991, 69573, 71148, 78330, 83486, 107702, 109552, 110196, 170791, 226757, 227929, 240641, 245007, 269582
GO:0061825 CC 2.83e-06  3/400   3/28212 05 podosome core                            66713, 74117, 76709
GO:0045259 CC 2.83e-06  3/400   3/28212 04 proton-transporting ATP synthase complex 11946, 11947, 66043
GO:0031941 CC 3.63e-06  7/400  46/28212 05 filamentous actin                        11465, 19241, 26401, 56226, 59069, 76709, 326618
GO:0005856 CC 3.90e-06 38/400 1195/28212 05 cytoskeleton                             11461, 11465, 11799, 11867, 12340, 12540, 12571, 12631, 12721, 12934, 13427, 14269, 16453, 17698, 18148, 18643, 18826, 19241, 19354, 20115, 20742, 21894, 22352, 22388, 26401, 27050, 56226, 59069, 66713, 67665, 67771, 74117, 75547, 76709, 104318, 109108, 240641, 326618
GO:0030426 CC 1.04e-05 11/400 150/28212 05 growth cone                              12313, 12631, 12934, 13427, 13806, 56637, 59069, 64138, 67771, 76709, 433182
GO:0070469 CC 1.76e-05  7/400  58/28212 02 respiratory chain                        22272, 22273, 56295, 66916, 72900, 78330, 104130
GO:0031252 CC 1.98e-05  7/400  59/28212 02 cell leading edge                        11840, 12631, 12721, 22352, 24068, 74117, 76709
GO:0099738 CC 2.57e-05  4/400  13/28212 06 cell cortex region                       13806, 64138, 67268, 433182
GO:0000275 CC 2.77e-05  3/400   5/28212 07 mitochondrial proton-transporting ATP synthase complex, catalytic core F(1) 11946, 11947, 66043
GO:0042105 CC 2.77e-05  3/400   5/28212 06 alpha-beta T cell receptor complex       12500, 12502, 12503
GO:0045261 CC 2.77e-05  3/400   5/28212 04 proton-transporting ATP synthase complex, catalytic core F(1) 11946, 11947, 66043
GO:0005758 CC 4.14e-05  7/400  66/28212 05 mitochondrial intermembrane space        11637, 14827, 20655, 57320, 66494, 66916, 77619
GO:0015934 CC 4.80e-05  4/400  15/28212 05 large ribosomal subunit                  18148, 22121, 26961, 67891
GO:0030018 CC 5.54e-05  9/400 120/28212 05 Z disc                                   11674, 14225, 18578, 20193, 67268, 67938, 72157, 109552, 381290
GO:0005790 CC 5.95e-05  5/400  30/28212 06 smooth endoplasmic reticulum             12317, 12330, 14827, 71853, 109552
GO:0030863 CC 7.01e-05  5/400  31/28212 06 cortical cytoskeleton                    11461, 12340, 20742, 59069, 326618
GO:0030864 CC 7.34e-05  6/400  50/28212 07 cortical actin cytoskeleton              12331, 12631, 12721, 13627, 22388, 75547
GO:0005753 CC 1.04e-04  4/400  18/28212 07 mitochondrial proton-transporting ATP synthase complex 11946, 11947, 11950, 66043
GO:0001772 CC 1.11e-04  5/400  34/28212 03 immunological synapse                    12487, 12508, 12520, 12721, 192662
GO:0005839 CC 1.97e-04  4/400  21/28212 03 proteasome core complex                  16913, 19170, 26443, 26445
GO:0061830 CC 2.01e-04  2/400   2/28212 03 concave side of sperm head               74117, 76709
GO:0071437 CC 2.23e-04  3/400   9/28212 04 invadopodium                             17698, 66713, 76709
GO:0005797 CC 2.38e-04  4/400  22/28212 07 Golgi medial cisterna                    14964, 14972, 15007, 15018
GO:0031672 CC 2.38e-04  4/400  22/28212 05 A band                                   19988, 19989, 20193, 67891
GO:0000307 CC 3.38e-04  4/400  24/28212 07 cyclin-dependent protein kinase holoenzyme complex 12444, 12445, 12571, 12575
GO:0005911 CC 3.44e-04 10/400 186/28212 02 cell-cell junction                       12340, 12481, 12508, 12540, 12631, 12721, 22388, 66395, 74117, 78473
GO:0070971 CC 4.65e-04  4/400  26/28212 05 endoplasmic reticulum exit site          14964, 14972, 15007, 15018
GO:0045335 CC 4.77e-04  6/400  70/28212 07 phagocytic vesicle                       11465, 12332, 12540, 12721, 20911, 22352
GO:0003735 MF 1.47e-35 37/400 147/28212 02 structural constituent of ribosome       11837, 16785, 16898, 19899, 19951, 19988, 19989, 20044, 20054, 20068, 20085, 20088, 20102, 20103, 20115, 22121, 26961, 27050, 27207, 27370, 56040, 65019, 67097, 67115, 67186, 67427, 67891, 67945, 68193, 68436, 75617, 76846, 267019, 270106, 667618, 100040823, 100042823
GO:0005515 MF 4.90e-28 161/400 4838/28212 02 protein binding                          11461, 11465, 11739, 11773, 11799, 11840, 11946, 11947, 12010, 12043, 12176, 12177, 12226, 12236, 12306, 12317, 12326, 12330, 12331, 12340, 12368, 12399, 12444, 12445, 12481, 12500, 12502, 12503, 12506, 12520, 12540, 12571, 12575, 12631, 12721, 12916, 12934, 13057, 13194, 13427, 13627, 13629, 13685, 14225, 14269, 14325, 14462, 14569, 14635, 14674, 14694, 14751, 14775, 14827, 14961, 14964, 14972, 15275, 15277, 15388, 15481, 15516, 15902, 16162, 16184, 16190, 16432, 16453, 16468, 16828, 16852, 17698, 17979, 18148, 18453, 18458, 18518, 18578, 18643, 18746, 18826, 19045, 19073, 19186, 19188, 19241, 19264, 20018, 20054, 20091, 20193, 20194, 20333, 20345, 20355, 20655, 20658, 20742, 20815, 20848, 20911, 20932, 20971, 21814, 21894, 21936, 22163, 22218, 22273, 22333, 22352, 22627, 23882, 23994, 26401, 26893, 26931, 26961, 27050, 27176, 53314, 54198, 54709, 55949, 56226, 56419, 56426, 56433, 56637, 57320, 59069, 65019, 66075, 66105, 66397, 66482, 66914, 67268, 67568, 67891, 68077, 68953, 70350, 72289, 74117, 76614, 76709, 76884, 78473, 93672, 104318, 108058, 108101, 108124, 109552, 110454, 170791, 192662, 240641, 317757, 433182
GO:0045296 MF 1.00e-19 33/400 301/28212 04 cadherin binding                         11674, 12215, 12332, 12340, 13629, 13806, 14694, 15481, 15516, 16828, 16898, 18301, 18643, 18746, 19988, 20742, 21894, 22627, 27176, 27370, 56419, 56421, 57320, 66395, 67115, 67160, 68193, 76959, 78781, 104318, 110611, 114584, 433182
GO:0044877 MF 1.65e-14 31/400 395/28212 02 protein-containing complex binding       11749, 11867, 12332, 12575, 13030, 13194, 13427, 14688, 15275, 16898, 17319, 17979, 18518, 19045, 20085, 20088, 20091, 20742, 21819, 21894, 22273, 22333, 22627, 27050, 56421, 66043, 70356, 72289, 76709, 78473, 108124
GO:0019901 MF 4.94e-11 30/400 504/28212 05 protein kinase binding                   11461, 12444, 12445, 12481, 12487, 12540, 12575, 12581, 12934, 13627, 13629, 15516, 16162, 17698, 18148, 19264, 19354, 20085, 20115, 20848, 22333, 22352, 26401, 27050, 56426, 56637, 66482, 78473, 192662, 381290
GO:0042802 MF 4.40e-10 46/400 1166/28212 03 identical protein binding                11461, 11465, 11674, 11799, 12010, 12043, 12176, 12177, 12306, 12368, 12503, 12721, 12934, 13010, 14269, 14325, 14827, 15516, 17319, 18746, 18826, 19188, 19264, 20024, 20193, 20318, 20655, 20848, 20971, 22333, 22352, 22627, 23882, 23994, 56045, 56421, 57320, 68077, 70356, 71962, 78781, 80795, 108058, 109552, 231932, 326618
GO:0051015 MF 4.56e-10 17/400 172/28212 05 actin filament binding                   11867, 12332, 12340, 12631, 12721, 13629, 18826, 21894, 22388, 56226, 59069, 66713, 67771, 74117, 76709, 326618, 621054
GO:0003779 MF 6.33e-09 22/400 347/28212 04 actin binding                            11867, 12331, 12332, 12340, 12631, 12721, 17698, 18301, 18643, 18826, 19241, 20742, 21894, 22388, 56226, 56419, 59069, 66713, 67771, 74117, 76709, 326618
GO:0003729 MF 3.31e-08 14/400 150/28212 05 mRNA binding                             12317, 13627, 16898, 18458, 19988, 19989, 20091, 20103, 22121, 27050, 27370, 57320, 83486, 100040823
GO:0003723 MF 9.13e-08 31/400 738/28212 04 RNA binding                              11992, 13629, 13806, 15388, 15481, 16898, 18148, 18458, 19899, 20054, 20103, 20658, 24068, 26443, 26987, 27050, 27176, 27207, 56045, 57320, 66395, 67427, 73826, 76846, 78781, 83486, 110611, 170791, 229663, 270106, 276770
GO:0042803 MF 9.37e-08 35/400 903/28212 04 protein homodimerization activity        11749, 11799, 11840, 12043, 12176, 12177, 12481, 12487, 12500, 12502, 12503, 12721, 13806, 14225, 14694, 15275, 15516, 16852, 18148, 19989, 20085, 20193, 20194, 20226, 20848, 21819, 56426, 57320, 108058, 231932, 240641, 245007, 326618, 384009, 433182
GO:0005200 MF 1.65e-07  9/400  60/28212 02 structural constituent of cytoskeleton   11465, 11867, 20742, 21894, 22352, 66713, 67771, 74117, 76709
GO:0031625 MF 3.63e-07 18/400 301/28212 05 ubiquitin protein ligase binding         11465, 11740, 12043, 12317, 12575, 14751, 14961, 15481, 15516, 21991, 22187, 22218, 22273, 22627, 26987, 56637, 65019, 110213
GO:0019899 MF 1.86e-06 20/400 408/28212 03 enzyme binding                           11739, 11799, 12226, 13806, 14225, 14694, 15481, 16898, 17698, 18148, 18453, 20655, 22218, 22627, 27050, 54709, 57320, 67963, 110213, 433182
GO:0046977 MF 2.66e-06  4/400   8/28212 03 TAP binding                              14964, 14972, 15007, 15018
GO:0042277 MF 2.79e-06 10/400 106/28212 03 peptide binding                          11837, 12317, 13030, 14964, 14972, 15007, 15018, 15481, 15516, 104318
GO:0019976 MF 2.83e-06  3/400   3/28212 04 interleukin-2 binding                    16184, 16185, 16186
GO:0004579 MF 4.74e-06  4/400   9/28212 06 dolichyl-diphosphooligosaccharide-protein glycotransferase activity 13135, 13200, 66059, 68292
GO:0042605 MF 5.52e-06  5/400  19/28212 04 peptide antigen binding                  14961, 14964, 14972, 15007, 15018
GO:0030881 MF 1.21e-05  4/400  11/28212 03 beta-2-microglobulin binding             14964, 14972, 15007, 15018
GO:0005536 MF 1.80e-05  4/400  12/28212 04 glucose binding                          15275, 15277, 20527, 27357
GO:0044325 MF 1.85e-05 10/400 131/28212 03 ion channel binding                      11773, 12313, 14225, 15516, 15902, 18578, 20194, 22333, 22627, 108058
GO:0046982 MF 2.37e-05 22/400 567/28212 04 protein heterodimerization activity      11799, 11840, 12043, 12176, 12177, 12500, 12502, 13057, 13806, 14961, 14964, 14972, 15007, 15018, 17979, 18148, 18453, 22627, 56451, 109552, 326618, 433182
GO:0008097 MF 2.57e-05  4/400  13/28212 06 5S rRNA binding                          13629, 19989, 67891, 68077
GO:0046933 MF 2.57e-05  4/400  13/28212 13 proton-transporting ATP synthase activity, rotational mechanism 11946, 11947, 11950, 66043
GO:0051020 MF 2.67e-05  6/400  42/28212 04 GTPase binding                           12176, 13806, 14688, 18826, 20742, 433182
GO:0019843 MF 2.67e-05  6/400  42/28212 05 rRNA binding                             18148, 20102, 20103, 26961, 27207, 76846
GO:0016853 MF 3.96e-05  9/400 115/28212 02 isomerase activity                       14225, 14751, 14827, 17319, 18453, 21991, 51798, 71853, 72157
GO:0019903 MF 6.32e-05  8/400  95/28212 05 protein phosphatase binding              12043, 12631, 14694, 16453, 20848, 22627, 54198, 78473
GO:0042608 MF 6.33e-05  4/400  16/28212 04 T cell receptor binding                  14964, 14972, 15007, 15018
GO:0003746 MF 8.19e-05  4/400  17/28212 06 translation elongation factor activity   13627, 13629, 55949, 276770
GO:0002020 MF 9.15e-05  9/400 128/28212 04 protease binding                         11674, 12043, 12306, 12487, 13010, 13011, 17319, 56637, 109552
GO:0043022 MF 1.14e-04  6/400  54/28212 04 ribosome binding                         13629, 14694, 16785, 53421, 66661, 276770
GO:0015037 MF 1.50e-04  3/400   8/28212 05 peptide disulfide oxidoreductase activity 14827, 18453, 71853
GO:0004298 MF 1.97e-04  4/400  21/28212 06 threonine-type endopeptidase activity    16913, 19170, 26443, 26445
GO:0004911 MF 2.01e-04  2/400   2/28212 06 interleukin-2 receptor activity          16184, 16185
GO:0050998 MF 2.38e-04  4/400  22/28212 04 nitric-oxide synthase binding            11461, 12313, 108058, 381290
GO:0051082 MF 2.78e-04  7/400  89/28212 03 unfolded protein binding                 12317, 12330, 15481, 15516, 18148, 70356, 227290
GO:0008092 MF 2.97e-04  7/400  90/28212 03 cytoskeletal protein binding             11674, 11676, 12306, 12721, 17698, 26401, 66713
GO:0031369 MF 3.38e-04  4/400  24/28212 03 translation initiation factor binding    13685, 20085, 20088, 20091
GO:0005525 MF 4.44e-04 14/400 344/28212 08 GTP binding                              11749, 11840, 12540, 13627, 13629, 14674, 15516, 16205, 19354, 26908, 66397, 107526, 231932, 317757
GO:0004984 MF 1.14e-07  0/400 1127/28212 05 olfactory receptor activity              
GO:0004930 MF 2.19e-04  0/400 624/28212 05 G-protein coupled receptor activity      
